60857 556515 470
29557 152473 375
407022 474897 449
782840 876582 525
597799 936412 525
6570 758689 509
803511 889801 525
325711 498398 449
124436 517350 470
46442 229762 386
501211 674656 509
689247 929054 525
900058 963670 507
638982 885713 525
825378 956002 525
84315 727197 509
719232 872586 525
490191 737166 509
383224 972977 525
328366 857621 525
216216 839882 525
383758 590746 470
108751 395547 443
320880 518311 470
943900 999580 458
327557 817614 509
479661 622227 470
138346 772369 509
774400 950872 525
178034 966702 525
746754 826555 468
578272 819939 509
6755 285230 443
105751 379494 443
289694 367481 441
144053 902534 525
339262 517407 470
251599 513177 470
2674 731464 509
453099 991149 525
40348 335601 443
437210 576347 470
633840 812186 504
196037 716182 509
455589 641990 509
111608 467626 449
577722 602084 434
134579 203478 383
429699 980007 525
671460 979932 525
75065 533058 470
49216 708728 509
16110 963138 525
26617 567796 470
97975 815427 509
411534 443673 418
233054 656664 509
152947 366652 443
440893 537778 470
458003 785108 509
683752 715755 504
160321 771328 509
65554 415812 449
322119 482272 449
392127 829871 509
479588 805414 509
196781 421373 449
334714 500729 449
354888 881985 525
799577 813407 406
40943 84904 351
231859 638829 509
4232 224202 386
38723 601431 470
22912 92797 351
578685 681958 509
188301 697672 509
787012 826260 468
341545 625068 470
783724 935186 525
150543 416799 449
278624 283548 358
629109 827682 504
16784 77124 351
278642 656504 509
312086 870065 525
74411 589788 470
295086 598184 470
451533 860538 525
80960 940889 525
353415 544680 470
144977 225495 386
644263 866629 525
884236 953005 507
720312 748154 424
556846 661698 509
669076 746297 504
135751 396264 443
196680 824394 509
436076 725729 509
211641 775363 509
483566 987228 525
73880 827196 509
838439 873451 432
94850 801010 509
523592 958331 525
230387 359225 443
21632 235278 443
619790 838837 525
417082 996511 525
218832 678543 509
212365 588708 470
41566 441103 449
562491 669160 509
293201 308523 371
275841 800353 509
443692 457115 387
183712 710687 509
481175 726889 509
279188 519809 470
343339 870921 525
166473 528178 470
306627 686574 509
657710 988972 525
384147 954521 525
180042 348609 443
84610 783280 509
19067 491224 449
111474 652754 509
425220 730061 509
131490 742848 509
303746 700439 509
104496 854785 525
186539 692267 509
527532 887989 525
3848 946474 525
659770 675272 442
871074 932807 476
791907 879610 525
167396 560964 470
209691 259339 443
577143 596044 434
109254 356463 443
362403 969881 525
312478 473142 449
377876 392868 436
23757 146642 375
517798 718152 509
631425 700133 442
330633 344449 366
49059 537190 470
647393 725003 504
856073 857771 375
77429 158623 383
1335 207536 383
145631 575587 470
567617 765295 509
427317 549775 470
236801 783779 509
249945 302510 407
625971 682221 509
12175 226915 386
653582 858388 525
329624 554305 470
348916 916118 525
189221 775714 509
725337 813384 468
214657 887745 525
20485 729192 509
31852 769302 509
86535 575253 470
143594 813908 509
33719 119551 354
528306 601551 452
526786 559863 452
447216 893688 525
661802 671676 442
284928 714284 509
195720 759220 509
172094 463022 449
774395 894073 525
409185 911829 525
433913 650093 509
172471 974517 525
705056 951603 525
99267 524127 470
279109 832662 509
34155 410720 449
684338 960488 525
254685 446111 449
832112 999505 525
194154 785085 509
168407 551581 470
13931 705055 509
165033 516702 470
250259 310103 407
426801 700188 509
181396 348887 443
358909 374054 410
24755 628683 509
607277 791361 509
118619 519417 470
388034 866998 525
488850 857763 525
59985 107037 354
700010 789873 504
461755 750428 509
565098 793704 509
300487 643309 509
394820 700522 509
974471 979220 383
788217 958368 525
388304 762812 509
391413 958495 525
150023 858795 525
3241 607886 470
575278 580245 390
171673 836278 509
853438 873621 432
503497 989825 525
38555 113898 354
468563 722630 509
757380 829665 468
761710 916214 525
98663 317809 443
687272 824043 504
27441 772928 509
726737 740122 424
195492 247552 443
620884 857372 525
69420 290324 443
126593 847621 525
586208 692967 509
723169 736436 424
464954 838144 525
125770 365722 443
176409 994054 525
252895 305893 407
307785 364213 441
224300 228553 368
262914 896580 525
116087 608325 470
52089 417917 449
279070 659091 509
185838 833399 509
80918 815565 509
806331 935235 525
224309 881735 525
129785 392560 443
240510 353509 441
35128 163974 383
789267 868677 525
369777 990737 525
654859 708267 504
175628 522008 470
628568 687746 442
884251 927441 476
104886 568506 470
198515 614100 470
399443 960211 525
165418 916284 525
54000 304797 443
17401 912257 525
89059 685842 509
340577 926406 525
307422 697897 509
569015 784200 509
104661 641425 509
654852 726819 504
244581 613900 470
46974 675383 509
429815 613421 470
413555 941682 525
165775 685303 509
545709 747496 509
81301 247771 443
321630 723409 509
70791 326026 443
384011 479805 449
252741 510511 449
326678 422114 449
182952 393645 443
755222 983288 525
863725 877480 432
326241 906445 525
815996 930611 525
518576 675190 509
839628 887048 445
361613 848450 525
7236 222199 386
155186 986560 525
132372 995598 525
318695 761038 509
950491 996384 458
559678 964244 525
167385 228367 386
53583 959201 525
410479 849282 525
160706 870781 525
71401 246765 443
